Individual assignment SBD
…
\(\blacktriangleright\) Based on (basic) content knowledge about the variable, and these visualizations, is there reason to assume the data are non-stationary and/or that there is a seasonal component?

2. Forecasting

2.1. SARIMA modeling

\(\blacktriangleright\) Perform the Dickey-Fuller test. What is your conclusion?

narrowed_data

## # A tsibble: 1,476 x 9 [1s] <UTC>
##    date  resptime_s mood_down concentrat se_handle act_what1 phy_physact evn_med
##    <chr> <chr>          <int>      <int>     <int>     <int>       <int>   <int>
##  1 13/0 08:58:56          -1        150         5        88           3       1
##  2 14/0 14:32:09           0        150         4        10           4       1
##  3 14/0 16:17:13           0        150         4        45           1       1
##  4 14/0 18:04:10           0        150         4        45           4       1
##  5 14/0 20:58:23           0        150         4        60           4       1
##  6 14/0 21:54:15           0        150         3        45           1       1
##  7 15/0 10:03:13           0        150         4        45           3       1
##  8 15/0 10:43:24           1        150         3         0           2       1
##  9 15/0 12:45:09           0        150         4        10           2       1
## 10 15/0 14:09:46           0        150         4        45           1       1
## #  with 1,466 more rows, and 1 more variable: date_time <dttm>
…
